com\db\demomidtier\LoginControllerTest.class
com\db\demomidtier\PropertyLoaderTest.class
com\db\demomidtier\DBConnectorTest.class
com\db\demomidtier\UserDataTest.class
com\db\demomidtier\UtilsTest.class
