-------------------------------------------------------------------------------
Test set: com.db.demomidtier.LoginControllerTest
-------------------------------------------------------------------------------
Tests run: 6, Failures: 0, Errors: 0, Skipped: 0, Time elapsed: 0.449 sec
